Calculate mortality fractions and rates for CHAMPS sites • champsmortality
…
Valid conditions

Computations with this data typically have the goal of finding adjusted mortality fractions and rates for a given condition found in the causal chain. As you will see, these can be specified by either using the condition name or a regular expression indicating ICD10 codes that indicate the condition.

A convenience function that lists all available conditions in the data is provided, valid_conditions():

valid_conditions(dd)
#> # A tibble: 54 × 2
#>    condition                            `causal chain rank`
#>    <chr>                                              <int>
#>  1 Perinatal asphyxia/hypoxia                             1
#>  2 Neonatal preterm birth complications                   2
#>  3 Lower respiratory infections                           3
#>  4 Neonatal sepsis                                        4
#>  5 Sepsis                                                 5
#>  6 Congenital birth defects                               6
#>  7 Other neonatal disorders                               7
#>  8 Malnutrition                                           8
#>  9 Meningitis/Encephalitis                                9
#> 10 Malaria                                               10
#> # … with 44 more rows
…
